%YAML 1.1
%TAG !u! tag:unity3d.com,2011:
--- !u!1001 &124867414206613193
PrefabInstance:
  m_ObjectHideFlags: 0
  serializedVersion: 2
  m_Modification:
    m_TransformParent: {fileID: 0}
    m_Modifications:
    - target: {fileID: 399801328927314342, guid: e4cdd0fcb11b546469a53b1c58be9d37,
        type: 3}
      propertyPath: m_Name
      value: Weapon_Unarmed
      objectReference: {fileID: 0}
    - target: {fileID: 2022779600321981188, guid: e4cdd0fcb11b546469a53b1c58be9d37,
        type: 3}
      propertyPath: m_LocalPosition.x
      value: 0
      objectReference: {fileID: 0}
    - target: {fileID: 2022779600321981188, guid: e4cdd0fcb11b546469a53b1c58be9d37,
        type: 3}
      propertyPath: m_LocalPosition.y
      value: 0
      objectReference: {fileID: 0}
    - target: {fileID: 2022779600321981188, guid: e4cdd0fcb11b546469a53b1c58be9d37,
        type: 3}
      propertyPath: m_LocalPosition.z
      value: 0
      objectReference: {fileID: 0}
    - target: {fileID: 2022779600321981188, guid: e4cdd0fcb11b546469a53b1c58be9d37,
        type: 3}
      propertyPath: m_LocalRotation.x
      value: 0
      objectReference: {fileID: 0}
    - target: {fileID: 2022779600321981188, guid: e4cdd0fcb11b546469a53b1c58be9d37,
        type: 3}
      propertyPath: m_LocalRotation.y
      value: 0
      objectReference: {fileID: 0}
    - target: {fileID: 2022779600321981188, guid: e4cdd0fcb11b546469a53b1c58be9d37,
        type: 3}
      propertyPath: m_LocalRotation.z
      value: 0
      objectReference: {fileID: 0}
    - target: {fileID: 2022779600321981188, guid: e4cdd0fcb11b546469a53b1c58be9d37,
        type: 3}
      propertyPath: m_LocalRotation.w
      value: 1
      objectReference: {fileID: 0}
    - target: {fileID: 2022779600321981188, guid: e4cdd0fcb11b546469a53b1c58be9d37,
        type: 3}
      propertyPath: m_RootOrder
      value: 0
      objectReference: {fileID: 0}
    - target: {fileID: 2022779600321981188, guid: e4cdd0fcb11b546469a53b1c58be9d37,
        type: 3}
      propertyPath: m_LocalEulerAnglesHint.x
      value: 0
      objectReference: {fileID: 0}
    - target: {fileID: 2022779600321981188, guid: e4cdd0fcb11b546469a53b1c58be9d37,
        type: 3}
      propertyPath: m_LocalEulerAnglesHint.y
      value: 0
      objectReference: {fileID: 0}
    - target: {fileID: 2022779600321981188, guid: e4cdd0fcb11b546469a53b1c58be9d37,
        type: 3}
      propertyPath: m_LocalEulerAnglesHint.z
      value: 0
      objectReference: {fileID: 0}
    - target: {fileID: 1499521320641397378, guid: e4cdd0fcb11b546469a53b1c58be9d37,
        type: 3}
      propertyPath: audioClips.Array.size
      value: 1
      objectReference: {fileID: 0}
    - target: {fileID: 1499521320641397378, guid: e4cdd0fcb11b546469a53b1c58be9d37,
        type: 3}
      propertyPath: audioClips.Array.data[0]
      value: 
      objectReference: {fileID: 8300000, guid: 8c4a6d3173c94d04c9896a4afd752f69, type: 3}
    m_RemovedComponents: []
  m_SourcePrefab: {fileID: 100100000, guid: e4cdd0fcb11b546469a53b1c58be9d37, type: 3}
