%YAML 1.1
%TAG !u! tag:unity3d.com,2011:
--- !u!1001 &2489528297116212893
PrefabInstance:
  m_ObjectHideFlags: 0
  serializedVersion: 2
  m_Modification:
    m_TransformParent: {fileID: 0}
    m_Modifications:
    - target: {fileID: 7275412099290329058, guid: c256860ad8a015348a664a63d9713631,
        type: 3}
      propertyPath: m_Name
      value: Pickup_Sword
      objectReference: {fileID: 0}
    - target: {fileID: 654597811663659622, guid: c256860ad8a015348a664a63d9713631,
        type: 3}
      propertyPath: m_LocalPosition.x
      value: 0
      objectReference: {fileID: 0}
    - target: {fileID: 654597811663659622, guid: c256860ad8a015348a664a63d9713631,
        type: 3}
      propertyPath: m_LocalPosition.y
      value: 0
      objectReference: {fileID: 0}
    - target: {fileID: 654597811663659622, guid: c256860ad8a015348a664a63d9713631,
        type: 3}
      propertyPath: m_LocalPosition.z
      value: 0
      objectReference: {fileID: 0}
    - target: {fileID: 654597811663659622, guid: c256860ad8a015348a664a63d9713631,
        type: 3}
      propertyPath: m_LocalRotation.x
      value: 0
      objectReference: {fileID: 0}
    - target: {fileID: 654597811663659622, guid: c256860ad8a015348a664a63d9713631,
        type: 3}
      propertyPath: m_LocalRotation.y
      value: 0
      objectReference: {fileID: 0}
    - target: {fileID: 654597811663659622, guid: c256860ad8a015348a664a63d9713631,
        type: 3}
      propertyPath: m_LocalRotation.z
      value: 0
      objectReference: {fileID: 0}
    - target: {fileID: 654597811663659622, guid: c256860ad8a015348a664a63d9713631,
        type: 3}
      propertyPath: m_LocalRotation.w
      value: 1
      objectReference: {fileID: 0}
    - target: {fileID: 654597811663659622, guid: c256860ad8a015348a664a63d9713631,
        type: 3}
      propertyPath: m_RootOrder
      value: 0
      objectReference: {fileID: 0}
    - target: {fileID: 654597811663659622, guid: c256860ad8a015348a664a63d9713631,
        type: 3}
      propertyPath: m_LocalEulerAnglesHint.x
      value: 0
      objectReference: {fileID: 0}
    - target: {fileID: 654597811663659622, guid: c256860ad8a015348a664a63d9713631,
        type: 3}
      propertyPath: m_LocalEulerAnglesHint.y
      value: 0
      objectReference: {fileID: 0}
    - target: {fileID: 654597811663659622, guid: c256860ad8a015348a664a63d9713631,
        type: 3}
      propertyPath: m_LocalEulerAnglesHint.z
      value: 0
      objectReference: {fileID: 0}
    - target: {fileID: 5727595509686093675, guid: c256860ad8a015348a664a63d9713631,
        type: 3}
      propertyPath: m_RootOrder
      value: 1
      objectReference: {fileID: 0}
    - target: {fileID: 2420965729644036899, guid: c256860ad8a015348a664a63d9713631,
        type: 3}
      propertyPath: weapon
      value: 
      objectReference: {fileID: 11400000, guid: 92e2a792699887646983a944b028bd63,
        type: 2}
    - target: {fileID: 2420965729644036899, guid: c256860ad8a015348a664a63d9713631,
        type: 3}
      propertyPath: weaponReference.m_AssetGUID
      value: 92e2a792699887646983a944b028bd63
      objectReference: {fileID: 0}
    - target: {fileID: 2420965729644036899, guid: c256860ad8a015348a664a63d9713631,
        type: 3}
      propertyPath: weaponAsset.m_AssetGUID
      value: 92e2a792699887646983a944b028bd63
      objectReference: {fileID: 0}
    - target: {fileID: 5723190430968212047, guid: c256860ad8a015348a664a63d9713631,
        type: 3}
      propertyPath: InitialModule.startColor.maxColor.r
      value: 0.7764706
      objectReference: {fileID: 0}
    - target: {fileID: 5723190430968212047, guid: c256860ad8a015348a664a63d9713631,
        type: 3}
      propertyPath: InitialModule.startColor.maxColor.g
      value: 0.94581205
      objectReference: {fileID: 0}
    - target: {fileID: 5723190430968212047, guid: c256860ad8a015348a664a63d9713631,
        type: 3}
      propertyPath: InitialModule.startColor.maxColor.b
      value: 1
      objectReference: {fileID: 0}
    m_RemovedComponents: []
  m_SourcePrefab: {fileID: 100100000, guid: c256860ad8a015348a664a63d9713631, type: 3}
--- !u!4 &3141557565768400123 stripped
Transform:
  m_CorrespondingSourceObject: {fileID: 654597811663659622, guid: c256860ad8a015348a664a63d9713631,
    type: 3}
  m_PrefabInstance: {fileID: 2489528297116212893}
  m_PrefabAsset: {fileID: 0}
--- !u!1001 &5702867564710417634
PrefabInstance:
  m_ObjectHideFlags: 0
  serializedVersion: 2
  m_Modification:
    m_TransformParent: {fileID: 3141557565768400123}
    m_Modifications:
    - target: {fileID: 181534, guid: 13af847dfa6dbe844ba4b7c902f98f67, type: 3}
      propertyPath: m_Name
      value: SM_Wep_Sword_01
      objectReference: {fileID: 0}
    - target: {fileID: 489998, guid: 13af847dfa6dbe844ba4b7c902f98f67, type: 3}
      propertyPath: m_LocalPosition.x
      value: 0
      objectReference: {fileID: 0}
    - target: {fileID: 489998, guid: 13af847dfa6dbe844ba4b7c902f98f67, type: 3}
      propertyPath: m_LocalPosition.y
      value: 0
      objectReference: {fileID: 0}
    - target: {fileID: 489998, guid: 13af847dfa6dbe844ba4b7c902f98f67, type: 3}
      propertyPath: m_LocalPosition.z
      value: -0.5
      objectReference: {fileID: 0}
    - target: {fileID: 489998, guid: 13af847dfa6dbe844ba4b7c902f98f67, type: 3}
      propertyPath: m_LocalRotation.x
      value: 0.7071068
      objectReference: {fileID: 0}
    - target: {fileID: 489998, guid: 13af847dfa6dbe844ba4b7c902f98f67, type: 3}
      propertyPath: m_LocalRotation.y
      value: 0
      objectReference: {fileID: 0}
    - target: {fileID: 489998, guid: 13af847dfa6dbe844ba4b7c902f98f67, type: 3}
      propertyPath: m_LocalRotation.z
      value: 0
      objectReference: {fileID: 0}
    - target: {fileID: 489998, guid: 13af847dfa6dbe844ba4b7c902f98f67, type: 3}
      propertyPath: m_LocalRotation.w
      value: 0.7071068
      objectReference: {fileID: 0}
    - target: {fileID: 489998, guid: 13af847dfa6dbe844ba4b7c902f98f67, type: 3}
      propertyPath: m_RootOrder
      value: 0
      objectReference: {fileID: 0}
    - target: {fileID: 489998, guid: 13af847dfa6dbe844ba4b7c902f98f67, type: 3}
      propertyPath: m_LocalEulerAnglesHint.x
      value: 90
      objectReference: {fileID: 0}
    - target: {fileID: 489998, guid: 13af847dfa6dbe844ba4b7c902f98f67, type: 3}
      propertyPath: m_LocalEulerAnglesHint.y
      value: 0
      objectReference: {fileID: 0}
    - target: {fileID: 489998, guid: 13af847dfa6dbe844ba4b7c902f98f67, type: 3}
      propertyPath: m_LocalEulerAnglesHint.z
      value: 0
      objectReference: {fileID: 0}
    m_RemovedComponents: []
  m_SourcePrefab: {fileID: 100100000, guid: 13af847dfa6dbe844ba4b7c902f98f67, type: 3}
