%YAML 1.1
%TAG !u! tag:unity3d.com,2011:
--- !u!1001 &3094675226167374536
PrefabInstance:
  m_ObjectHideFlags: 0
  serializedVersion: 2
  m_Modification:
    m_TransformParent: {fileID: 6049929431978277934}
    m_Modifications:
    - target: {fileID: 1563655986059756, guid: 7f105c0c272e6c146b4b41cdc53ea356, type: 3}
      propertyPath: m_Name
      value: Simple Bow
      objectReference: {fileID: 0}
    - target: {fileID: 4281075886339594, guid: 7f105c0c272e6c146b4b41cdc53ea356, type: 3}
      propertyPath: m_LocalPosition.x
      value: 0.311
      objectReference: {fileID: 0}
    - target: {fileID: 4281075886339594, guid: 7f105c0c272e6c146b4b41cdc53ea356, type: 3}
      propertyPath: m_LocalPosition.y
      value: 0.041
      objectReference: {fileID: 0}
    - target: {fileID: 4281075886339594, guid: 7f105c0c272e6c146b4b41cdc53ea356, type: 3}
      propertyPath: m_LocalPosition.z
      value: 0.805
      objectReference: {fileID: 0}
    - target: {fileID: 4281075886339594, guid: 7f105c0c272e6c146b4b41cdc53ea356, type: 3}
      propertyPath: m_LocalRotation.x
      value: 0.023673581
      objectReference: {fileID: 0}
    - target: {fileID: 4281075886339594, guid: 7f105c0c272e6c146b4b41cdc53ea356, type: 3}
      propertyPath: m_LocalRotation.y
      value: -0.6831468
      objectReference: {fileID: 0}
    - target: {fileID: 4281075886339594, guid: 7f105c0c272e6c146b4b41cdc53ea356, type: 3}
      propertyPath: m_LocalRotation.z
      value: 0.7298517
      objectReference: {fileID: 0}
    - target: {fileID: 4281075886339594, guid: 7f105c0c272e6c146b4b41cdc53ea356, type: 3}
      propertyPath: m_LocalRotation.w
      value: -0.008159938
      objectReference: {fileID: 0}
    - target: {fileID: 4281075886339594, guid: 7f105c0c272e6c146b4b41cdc53ea356, type: 3}
      propertyPath: m_RootOrder
      value: 0
      objectReference: {fileID: 0}
    - target: {fileID: 4281075886339594, guid: 7f105c0c272e6c146b4b41cdc53ea356, type: 3}
      propertyPath: m_LocalEulerAnglesHint.x
      value: 85.41901
      objectReference: {fileID: 0}
    - target: {fileID: 4281075886339594, guid: 7f105c0c272e6c146b4b41cdc53ea356, type: 3}
      propertyPath: m_LocalEulerAnglesHint.y
      value: 394.907
      objectReference: {fileID: 0}
    - target: {fileID: 4281075886339594, guid: 7f105c0c272e6c146b4b41cdc53ea356, type: 3}
      propertyPath: m_LocalEulerAnglesHint.z
      value: 573.649
      objectReference: {fileID: 0}
    m_RemovedComponents: []
  m_SourcePrefab: {fileID: 100100000, guid: 7f105c0c272e6c146b4b41cdc53ea356, type: 3}
--- !u!1001 &5757836283303417642
PrefabInstance:
  m_ObjectHideFlags: 0
  serializedVersion: 2
  m_Modification:
    m_TransformParent: {fileID: 0}
    m_Modifications:
    - target: {fileID: 399801328927314342, guid: e4cdd0fcb11b546469a53b1c58be9d37,
        type: 3}
      propertyPath: m_Name
      value: Weapon_Bow
      objectReference: {fileID: 0}
    - target: {fileID: 2022779600321981188, guid: e4cdd0fcb11b546469a53b1c58be9d37,
        type: 3}
      propertyPath: m_LocalPosition.x
      value: 0
      objectReference: {fileID: 0}
    - target: {fileID: 2022779600321981188, guid: e4cdd0fcb11b546469a53b1c58be9d37,
        type: 3}
      propertyPath: m_LocalPosition.y
      value: 0
      objectReference: {fileID: 0}
    - target: {fileID: 2022779600321981188, guid: e4cdd0fcb11b546469a53b1c58be9d37,
        type: 3}
      propertyPath: m_LocalPosition.z
      value: 0
      objectReference: {fileID: 0}
    - target: {fileID: 2022779600321981188, guid: e4cdd0fcb11b546469a53b1c58be9d37,
        type: 3}
      propertyPath: m_LocalRotation.x
      value: 0
      objectReference: {fileID: 0}
    - target: {fileID: 2022779600321981188, guid: e4cdd0fcb11b546469a53b1c58be9d37,
        type: 3}
      propertyPath: m_LocalRotation.y
      value: 0
      objectReference: {fileID: 0}
    - target: {fileID: 2022779600321981188, guid: e4cdd0fcb11b546469a53b1c58be9d37,
        type: 3}
      propertyPath: m_LocalRotation.z
      value: 0
      objectReference: {fileID: 0}
    - target: {fileID: 2022779600321981188, guid: e4cdd0fcb11b546469a53b1c58be9d37,
        type: 3}
      propertyPath: m_LocalRotation.w
      value: 1
      objectReference: {fileID: 0}
    - target: {fileID: 2022779600321981188, guid: e4cdd0fcb11b546469a53b1c58be9d37,
        type: 3}
      propertyPath: m_RootOrder
      value: 0
      objectReference: {fileID: 0}
    - target: {fileID: 2022779600321981188, guid: e4cdd0fcb11b546469a53b1c58be9d37,
        type: 3}
      propertyPath: m_LocalEulerAnglesHint.x
      value: 0
      objectReference: {fileID: 0}
    - target: {fileID: 2022779600321981188, guid: e4cdd0fcb11b546469a53b1c58be9d37,
        type: 3}
      propertyPath: m_LocalEulerAnglesHint.y
      value: 0
      objectReference: {fileID: 0}
    - target: {fileID: 2022779600321981188, guid: e4cdd0fcb11b546469a53b1c58be9d37,
        type: 3}
      propertyPath: m_LocalEulerAnglesHint.z
      value: 0
      objectReference: {fileID: 0}
    m_RemovedComponents: []
  m_SourcePrefab: {fileID: 100100000, guid: e4cdd0fcb11b546469a53b1c58be9d37, type: 3}
--- !u!4 &6049929431978277934 stripped
Transform:
  m_CorrespondingSourceObject: {fileID: 2022779600321981188, guid: e4cdd0fcb11b546469a53b1c58be9d37,
    type: 3}
  m_PrefabInstance: {fileID: 5757836283303417642}
  m_PrefabAsset: {fileID: 0}
